Lab 10 Homework
…
## Rows: 34786 Columns: 13

## -- Column specification --------------------------------------------------------
## Delimiter: ","
## chr (6): species_id, sex, genus, species, taxa, plot_type
## dbl (7): record_id, month, day, year, plot_id, hindfoot_length, weight

## 
## i Use `spec()` to retrieve the full column specification for this data.
## i Specify the column types or set `show_col_types = FALSE` to quiet this message.

deserts

## # A tibble: 34,786 x 13
##    record_id month   day  year plot_id species_id sex   hindfoot_length weight
##        <dbl> <dbl> <dbl> <dbl>   <dbl> <chr>      <chr>           <dbl>  <dbl>
##  1         1     7    16  1977       2 NL         M                  32     NA
##  2         2     7    16  1977       3 NL         M                  33     NA
##  3         3     7    16  1977       2 DM         F                  37     NA
##  4         4     7    16  1977       7 DM         M                  36     NA
##  5         5     7    16  1977       3 DM         M                  35     NA
##  6         6     7    16  1977       1 PF         M                  14     NA
##  7         7     7    16  1977       2 PE         F                  NA     NA
##  8         8     7    16  1977       1 DM         M                  37     NA
##  9         9     7    16  1977       1 DM         F                  34     NA
## 10        10     7    16  1977       6 PF         F                  20     NA
## # ... with 34,776 more rows, and 4 more variables: genus <chr>, species <chr>,
## #   taxa <chr>, plot_type <chr>
…
How many genera and species are represented in the data? What are the total number of observations? Which species is most/ least frequently sampled in the study?

deserts %>%
  count(genus) %>%
  arrange(desc(n))

## # A tibble: 26 x 2
##    genus                n
##    <chr>            <int>
##  1 Dipodomys        16167
##  2 Chaetodipus       6029
##  3 Onychomys         3267
##  4 Reithrodontomys   2694
##  5 Peromyscus        2234
##  6 Perognathus       1629
##  7 Neotoma           1252
##  8 Ammospermophilus   437
##  9 Amphispiza         303
## 10 Spermophilus       249
## # ... with 16 more rows

#n_unique(deserts$genus)

deserts %>%
  count(species) %>%
  arrange(desc(n))

## # A tibble: 40 x 2
##    species          n
##    <chr>        <int>
##  1 merriami     10596
##  2 penicillatus  3123
##  3 ordii         3027
##  4 baileyi       2891
##  5 megalotis     2609
##  6 spectabilis   2504
##  7 torridus      2249
##  8 flavus        1597
##  9 eremicus      1299
## 10 albigula      1252
## # ... with 30 more rows
…
What is the range of weight for each species included in the study? Remove any observations of weight that are NA so they do not show up in the plot.

deserts %>%
  na.omit(deserts$weight) %>%
  group_by(species) %>%
  summarise(min(weight), max(weight)) 

## # A tibble: 21 x 3
##    species     `min(weight)` `max(weight)`
##    <chr>               <dbl>         <dbl>
##  1 albigula               30           280
##  2 baileyi                12            55
##  3 eremicus                8            40
##  4 flavus                  4            25
##  5 fulvescens             10            20
##  6 fulviventer            24           199
##  7 hispidus               16           140
##  8 intermedius            17            21
##  9 leucogaster            10            56
## 10 leucopus                8            27
## # ... with 11 more rows
…
Dipodomys merriami is the most frequently sampled animal in the study. How have the number of observations of this species changed over the years included in the study?

merriami <- deserts %>%
  filter(species == "merriami") %>%
  #group_by(year) %>%
  count(year)
merriami

## # A tibble: 26 x 2
##     year     n
##    <dbl> <int>
##  1  1977   264
##  2  1978   389
##  3  1979   209
##  4  1980   493
##  5  1981   559
##  6  1982   609
##  7  1983   528
##  8  1984   396
##  9  1985   667
## 10  1986   406
## # ... with 16 more rows
…
Which two species have, on average, the highest weight? Once you have identified them, make a new column that is a ratio of weight to hindfoot_length. Make a plot that shows the range of this new ratio and fill by sex.

deserts %>%
  na.omit(deserts$weight) %>%
  select(species, weight) %>%
  group_by(species) %>%
  summarise(mean(weight))

## # A tibble: 21 x 2
##    species     `mean(weight)`
##    <chr>                <dbl>
##  1 albigula            159.  
##  2 baileyi              31.7 
##  3 eremicus             21.6 
##  4 flavus                7.96
##  5 fulvescens           13.5 
##  6 fulviventer          60.1 
##  7 hispidus             64.8 
##  8 intermedius          19.4 
##  9 leucogaster          31.3 
## 10 leucopus             19.0 
## # ... with 11 more rows

ratioframe <- deserts %>%
  na.omit(deserts$weight) %>%
  na.omit(deserts$hindfoot_length) %>%
  group_by(species) %>%
  summarise(mean(weight)/mean(hindfoot_length))
ratioframe

## # A tibble: 21 x 2
##    species     `mean(weight)/mean(hindfoot_length)`
##    <chr>                                      <dbl>
##  1 albigula                                   4.92 
##  2 baileyi                                    1.22 
##  3 eremicus                                   1.07 
##  4 flavus                                     0.511
##  5 fulvescens                                 0.769
##  6 fulviventer                                2.24 
##  7 hispidus                                   2.31 
##  8 intermedius                                0.866
##  9 leucogaster                                1.53 
## 10 leucopus                                   0.947
## # ... with 11 more rows
…
