…
```
## 
## i Use `spec()` to retrieve the full column specification for this data.
## i Specify the column types or set `show_col_types = FALSE` to quiet this message.
```

```r
elephants
```

```
## # A tibble: 288 x 3
##      Age Height Sex  
##    <dbl>  <dbl> <chr>
##  1   1.4   120  M    
##  2  17.5   227  M    
##  3  12.8   235  M    
##  4  11.2   210  M    
##  5  12.7   220  M    
##  6  12.7   189  M    
##  7  12.2   225  M    
##  8  12.2   204  M    
##  9  28.2   266. M    
## 10  11.7   233  M    
## # ... with 278 more rows
```

4. (2 points) Change the names of the variables to lower case and change the class of the variable `sex` to a factor.



```r
elephants <- rename(elephants, age = "Age", height="Height", sex="Sex")
```

```r
elephants
```

```
## # A tibble: 288 x 3
##      age height sex  
##    <dbl>  <dbl> <chr>
##  1   1.4   120  M    
##  2  17.5   227  M    
##  3  12.8   235  M    
##  4  11.2   210  M    
##  5  12.7   220  M    
##  6  12.7   189  M    
##  7  12.2   225  M    
##  8  12.2   204  M    
##  9  28.2   266. M    
## 10  11.7   233  M    
## # ... with 278 more rows
```
…
```r
elephants$sex <- as.factor(elephants$sex)
class(elephants$sex)
```

```
## [1] "factor"
```

```r
elephants
```

```
## # A tibble: 288 x 3
##      age height sex  
##    <dbl>  <dbl> <fct>
##  1   1.4   120  M    
##  2  17.5   227  M    
##  3  12.8   235  M    
##  4  11.2   210  M    
##  5  12.7   220  M    
##  6  12.7   189  M    
##  7  12.2   225  M    
##  8  12.2   204  M    
##  9  28.2   266. M    
## 10  11.7   233  M    
## # ... with 278 more rows
```
…
```
## [1] 10.97132
```
10.97132 =mean

7. (2 points) How does the average age and height of elephants compare by sex?


```r
  male_elephants <- filter(elephants, sex == "M")
male_elephants
```

```
## # A tibble: 138 x 3
##      age height sex  
##    <dbl>  <dbl> <fct>
##  1   1.4   120  M    
##  2  17.5   227  M    
##  3  12.8   235  M    
##  4  11.2   210  M    
##  5  12.7   220  M    
##  6  12.7   189  M    
##  7  12.2   225  M    
##  8  12.2   204  M    
##  9  28.2   266. M    
## 10  11.7   233  M    
## # ... with 128 more rows
```
…
```
## [1] 185.1312
```


```r
female_elephants <- filter(elephants, sex == "F")
female_elephants
```

```
## # A tibble: 150 x 3
##      age height sex  
##    <dbl>  <dbl> <fct>
##  1 11.1   218.  F    
##  2  2.33  133.  F    
##  3  2.42  145.  F    
##  4 26.5   206.  F    
##  5 11.8   207   F    
##  6  0.33   85.6 F    
##  7 26.8   227.  F    
##  8 13.4   203   F    
##  9 28.4   228.  F    
## 10  2.08  131.  F    
## # ... with 140 more rows
```
…
```r
females <- elephants%>%
  filter(sex == "F")%>%
  filter(age>20)
females
```

```
## # A tibble: 37 x 3
##      age height sex  
##    <dbl>  <dbl> <fct>
##  1  26.5   206. F    
##  2  26.8   227. F    
##  3  28.4   228. F    
##  4  27.2   226. F    
##  5  25.4   240. F    
##  6  23.3   238. F    
##  7  26.8   235. F    
##  8  27.8   265  F    
##  9  28.2   216. F    
## 10  26.1   216. F    
## # ... with 27 more rows
```
…
```
## 
## i Use `spec()` to retrieve the full column specification for this data.
## i Specify the column types or set `show_col_types = FALSE` to quiet this message.
```

```r
gabon
```

```
## # A tibble: 24 x 26
##    TransectID Distance HuntCat  NumHouseholds LandUse Veg_Rich Veg_Stems
##         <dbl>    <dbl> <chr>            <dbl> <chr>      <dbl>     <dbl>
##  1          1     7.14 Moderate            54 Park        16.7      31.2
##  2          2    17.3  None                54 Park        15.8      37.4
##  3          2    18.3  None                29 Park        16.9      32.3
##  4          3    20.8  None                29 Logging     12.4      29.4
##  5          4    16.0  None                29 Park        17.1      36  
##  6          5    17.5  None                29 Park        16.5      29.2
##  7          6    24.1  None                29 Park        14.8      31.2
##  8          7    19.8  None                54 Logging     13.2      32.6
##  9          8     5.78 High                25 Neither     12.6      23.7
## 10          9     5.13 High                73 Logging     16        27.1
## # ... with 14 more rows, and 19 more variables: Veg_liana <dbl>, Veg_DBH <dbl>,
## #   Veg_Canopy <dbl>, Veg_Understory <dbl>, RA_Apes <dbl>, RA_Birds <dbl>,
## #   RA_Elephant <dbl>, RA_Monkeys <dbl>, RA_Rodent <dbl>, RA_Ungulate <dbl>,
## #   Rich_AllSpecies <dbl>, Evenness_AllSpecies <dbl>,
## #   Diversity_AllSpecies <dbl>, Rich_BirdSpecies <dbl>,
## #   Evenness_BirdSpecies <dbl>, Diversity_BirdSpecies <dbl>,
## #   Rich_MammalSpecies <dbl>, Evenness_MammalSpecies <dbl>, ...
```
…
