Lab 11 Homework
…
For this assignment, we are going to use the dataset gapminder. Gapminder includes information about economics, population, and life expectancy from countries all over the world. You will need to install it before use. This is the same data that we will use for midterm 2 so this is good practice.

#install.packages("gapminder")
library("gapminder")

Questions

The questions below are open-ended and have many possible solutions. Your approach should, where appropriate, include numerical summaries and visuals. Be creative; assume you are building an analysis that you would ultimately present to an audience of stakeholders. Feel free to try out different geoms if they more clearly present your results.

1. Use the function(s) of your choice to get an idea of the overall structure of the data frame, including its dimensions, column names, variable classes, etc. As part of this, determine how NAs are treated in the data.

gapminder

## # A tibble: 1,704 x 6
##    country     continent  year lifeExp      pop gdpPercap
##    <fct>       <fct>     <int>   <dbl>    <int>     <dbl>
##  1 Afghanistan Asia       1952    28.8  8425333      779.
##  2 Afghanistan Asia       1957    30.3  9240934      821.
##  3 Afghanistan Asia       1962    32.0 10267083      853.
##  4 Afghanistan Asia       1967    34.0 11537966      836.
##  5 Afghanistan Asia       1972    36.1 13079460      740.
##  6 Afghanistan Asia       1977    38.4 14880372      786.
##  7 Afghanistan Asia       1982    39.9 12881816      978.
##  8 Afghanistan Asia       1987    40.8 13867957      852.
##  9 Afghanistan Asia       1992    41.7 16317921      649.
## 10 Afghanistan Asia       1997    41.8 22227415      635.
## # ... with 1,694 more rows
…
2. Among the interesting variables in gapminder is life expectancy. How has global life expectancy changed between 1952 and 2007?

gapminder %>%
  group_by(year) %>%
  mutate(mean = mean(lifeExp))

## # A tibble: 1,704 x 7
## # Groups:   year [12]
##    country     continent  year lifeExp      pop gdpPercap  mean
##    <fct>       <fct>     <int>   <dbl>    <int>     <dbl> <dbl>
##  1 Afghanistan Asia       1952    28.8  8425333      779.  49.1
##  2 Afghanistan Asia       1957    30.3  9240934      821.  51.5
##  3 Afghanistan Asia       1962    32.0 10267083      853.  53.6
##  4 Afghanistan Asia       1967    34.0 11537966      836.  55.7
##  5 Afghanistan Asia       1972    36.1 13079460      740.  57.6
##  6 Afghanistan Asia       1977    38.4 14880372      786.  59.6
##  7 Afghanistan Asia       1982    39.9 12881816      978.  61.5
##  8 Afghanistan Asia       1987    40.8 13867957      852.  63.2
##  9 Afghanistan Asia       1992    41.7 16317921      649.  64.2
## 10 Afghanistan Asia       1997    41.8 22227415      635.  65.0
## # ... with 1,694 more rows
…
4. Your answer above doesnt tell the whole story since life expectancy varies by region. Make a summary that shows the min, mean, and max life expectancy by continent for all years represented in the data.

5. How has life expectancy changed between 1952-2007 for each continent?

year <- gapminder %>%
  filter(year<2008, year>1951) 
year

## # A tibble: 1,704 x 6
##    country     continent  year lifeExp      pop gdpPercap
##    <fct>       <fct>     <int>   <dbl>    <int>     <dbl>
##  1 Afghanistan Asia       1952    28.8  8425333      779.
##  2 Afghanistan Asia       1957    30.3  9240934      821.
##  3 Afghanistan Asia       1962    32.0 10267083      853.
##  4 Afghanistan Asia       1967    34.0 11537966      836.
##  5 Afghanistan Asia       1972    36.1 13079460      740.
##  6 Afghanistan Asia       1977    38.4 14880372      786.
##  7 Afghanistan Asia       1982    39.9 12881816      978.
##  8 Afghanistan Asia       1987    40.8 13867957      852.
##  9 Afghanistan Asia       1992    41.7 16317921      649.
## 10 Afghanistan Asia       1997    41.8 22227415      635.
## # ... with 1,694 more rows
…
8. Use your results from the question above to plot population growth for the top five countries since 1952.

9. How does per-capita GDP growth compare between these same five countries?

10. Make one plot of your choice that uses faceting!

year <- gapminder %>%
  filter(year<2008, year>1951) 
year

## # A tibble: 1,704 x 6
##    country     continent  year lifeExp      pop gdpPercap
##    <fct>       <fct>     <int>   <dbl>    <int>     <dbl>
##  1 Afghanistan Asia       1952    28.8  8425333      779.
##  2 Afghanistan Asia       1957    30.3  9240934      821.
##  3 Afghanistan Asia       1962    32.0 10267083      853.
##  4 Afghanistan Asia       1967    34.0 11537966      836.
##  5 Afghanistan Asia       1972    36.1 13079460      740.
##  6 Afghanistan Asia       1977    38.4 14880372      786.
##  7 Afghanistan Asia       1982    39.9 12881816      978.
##  8 Afghanistan Asia       1987    40.8 13867957      852.
##  9 Afghanistan Asia       1992    41.7 16317921      649.
## 10 Afghanistan Asia       1997    41.8 22227415      635.
## # ... with 1,694 more rows
…
