…
```
## 
## i Use `spec()` to retrieve the full column specification for this data.
## i Specify the column types or set `show_col_types = FALSE` to quiet this message.
```

```r
population
```

```
## # A tibble: 195 x 302
##    country `1800` `1801` `1802` `1803` `1804` `1805` `1806` `1807` `1808` `1809`
##    <chr>    <dbl>  <dbl>  <dbl>  <dbl>  <dbl>  <dbl>  <dbl>  <dbl>  <dbl>  <dbl>
##  1 Afghan~ 3.28e6 3.28e6 3.28e6 3.28e6 3.28e6 3.28e6 3.28e6 3.28e6 3.28e6 3.28e6
##  2 Albania 4   e5 4.02e5 4.04e5 4.05e5 4.07e5 4.09e5 4.11e5 4.13e5 4.14e5 4.16e5
##  3 Algeria 2.5 e6 2.51e6 2.52e6 2.53e6 2.54e6 2.55e6 2.56e6 2.56e6 2.57e6 2.58e6
##  4 Andorra 2.65e3 2.65e3 2.65e3 2.65e3 2.65e3 2.65e3 2.65e3 2.65e3 2.65e3 2.65e3
##  5 Angola  1.57e6 1.57e6 1.57e6 1.57e6 1.57e6 1.57e6 1.57e6 1.57e6 1.57e6 1.57e6
##  6 Antigu~ 3.7 e4 3.7 e4 3.7 e4 3.7 e4 3.7 e4 3.7 e4 3.7 e4 3.7 e4 3.7 e4 3.7 e4
##  7 Argent~ 5.34e5 5.2 e5 5.06e5 4.92e5 4.79e5 4.66e5 4.53e5 4.41e5 4.29e5 4.17e5
##  8 Armenia 4.13e5 4.13e5 4.13e5 4.13e5 4.13e5 4.13e5 4.13e5 4.13e5 4.13e5 4.13e5
##  9 Austra~ 2   e5 2.05e5 2.11e5 2.16e5 2.22e5 2.27e5 2.33e5 2.39e5 2.46e5 2.52e5
## 10 Austria 3   e6 3.02e6 3.04e6 3.05e6 3.07e6 3.09e6 3.11e6 3.12e6 3.14e6 3.16e6
## # ... with 185 more rows, and 291 more variables: 1810 <dbl>, 1811 <dbl>,
## #   1812 <dbl>, 1813 <dbl>, 1814 <dbl>, 1815 <dbl>, 1816 <dbl>, 1817 <dbl>,
## #   1818 <dbl>, 1819 <dbl>, 1820 <dbl>, 1821 <dbl>, 1822 <dbl>, 1823 <dbl>,
## #   1824 <dbl>, 1825 <dbl>, 1826 <dbl>, 1827 <dbl>, 1828 <dbl>, 1829 <dbl>,
## #   1830 <dbl>, 1831 <dbl>, 1832 <dbl>, 1833 <dbl>, 1834 <dbl>, 1835 <dbl>,
## #   1836 <dbl>, 1837 <dbl>, 1838 <dbl>, 1839 <dbl>, 1840 <dbl>, 1841 <dbl>,
## #   1842 <dbl>, 1843 <dbl>, 1844 <dbl>, 1845 <dbl>, 1846 <dbl>, 1847 <dbl>, ...
```
…
```
## 
## i Use `spec()` to retrieve the full column specification for this data.
## i Specify the column types or set `show_col_types = FALSE` to quiet this message.
```

```r
income
```

```
## # A tibble: 193 x 242
##    country `1800` `1801` `1802` `1803` `1804` `1805` `1806` `1807` `1808` `1809`
##    <chr>    <dbl>  <dbl>  <dbl>  <dbl>  <dbl>  <dbl>  <dbl>  <dbl>  <dbl>  <dbl>
##  1 Afghan~    603    603    603    603    603    603    603    603    603    603
##  2 Albania    667    667    667    667    667    668    668    668    668    668
##  3 Algeria    715    716    717    718    719    720    721    722    723    724
##  4 Andorra   1200   1200   1200   1200   1210   1210   1210   1210   1220   1220
##  5 Angola     618    620    623    626    628    631    634    637    640    642
##  6 Antigu~    757    757    757    757    757    757    757    758    758    758
##  7 Argent~   1640   1640   1650   1650   1660   1660   1670   1680   1680   1690
##  8 Armenia    514    514    514    514    514    514    514    514    514    514
##  9 Austra~    817    822    826    831    836    841    845    850    855    860
## 10 Austria   1850   1850   1860   1870   1880   1880   1890   1900   1910   1920
## # ... with 183 more rows, and 231 more variables: 1810 <dbl>, 1811 <dbl>,
## #   1812 <dbl>, 1813 <dbl>, 1814 <dbl>, 1815 <dbl>, 1816 <dbl>, 1817 <dbl>,
## #   1818 <dbl>, 1819 <dbl>, 1820 <dbl>, 1821 <dbl>, 1822 <dbl>, 1823 <dbl>,
## #   1824 <dbl>, 1825 <dbl>, 1826 <dbl>, 1827 <dbl>, 1828 <dbl>, 1829 <dbl>,
## #   1830 <dbl>, 1831 <dbl>, 1832 <dbl>, 1833 <dbl>, 1834 <dbl>, 1835 <dbl>,
## #   1836 <dbl>, 1837 <dbl>, 1838 <dbl>, 1839 <dbl>, 1840 <dbl>, 1841 <dbl>,
## #   1842 <dbl>, 1843 <dbl>, 1844 <dbl>, 1845 <dbl>, 1846 <dbl>, 1847 <dbl>, ...
```
…
```
## 
## i Use `spec()` to retrieve the full column specification for this data.
## i Specify the column types or set `show_col_types = FALSE` to quiet this message.
```

```r
life_exp
```

```
## # A tibble: 187 x 302
##    country `1800` `1801` `1802` `1803` `1804` `1805` `1806` `1807` `1808` `1809`
##    <chr>    <dbl>  <dbl>  <dbl>  <dbl>  <dbl>  <dbl>  <dbl>  <dbl>  <dbl>  <dbl>
##  1 Afghan~   28.2   28.2   28.2   28.2   28.2   28.2   28.1   28.1   28.1   28.1
##  2 Albania   35.4   35.4   35.4   35.4   35.4   35.4   35.4   35.4   35.4   35.4
##  3 Algeria   28.8   28.8   28.8   28.8   28.8   28.8   28.8   28.8   28.8   28.8
##  4 Andorra   NA     NA     NA     NA     NA     NA     NA     NA     NA     NA  
##  5 Angola    27     27     27     27     27     27     27     27     27     27  
##  6 Antigu~   33.5   33.5   33.5   33.5   33.5   33.5   33.5   33.5   33.5   33.5
##  7 Argent~   33.2   33.2   33.2   33.2   33.2   33.2   33.2   33.2   33.2   33.2
##  8 Armenia   34     34     34     34     34     34     34     34     34     34  
##  9 Austra~   34     34     34     34     34     34     34     34     34     34  
## 10 Austria   34.4   34.4   34.4   34.4   34.4   34.4   34.4   34.4   34.4   34.4
## # ... with 177 more rows, and 291 more variables: 1810 <dbl>, 1811 <dbl>,
## #   1812 <dbl>, 1813 <dbl>, 1814 <dbl>, 1815 <dbl>, 1816 <dbl>, 1817 <dbl>,
## #   1818 <dbl>, 1819 <dbl>, 1820 <dbl>, 1821 <dbl>, 1822 <dbl>, 1823 <dbl>,
## #   1824 <dbl>, 1825 <dbl>, 1826 <dbl>, 1827 <dbl>, 1828 <dbl>, 1829 <dbl>,
## #   1830 <dbl>, 1831 <dbl>, 1832 <dbl>, 1833 <dbl>, 1834 <dbl>, 1835 <dbl>,
## #   1836 <dbl>, 1837 <dbl>, 1838 <dbl>, 1839 <dbl>, 1840 <dbl>, 1841 <dbl>,
## #   1842 <dbl>, 1843 <dbl>, 1844 <dbl>, 1845 <dbl>, 1846 <dbl>, 1847 <dbl>, ...
```

1. (3 points) Once you have an idea of the structure of the data, please make each data set tidy (hint: think back to pivots) and store them as new objects. You will need both the original (wide) and tidy (long) data!  


```r
pop_long <- population %>%
  pivot_longer(-country, names_to = "year", values_to = "population")
pop_long
```

```
## # A tibble: 58,695 x 3
##    country     year  population
##    <chr>       <chr>      <dbl>
##  1 Afghanistan 1800     3280000
##  2 Afghanistan 1801     3280000
##  3 Afghanistan 1802     3280000
##  4 Afghanistan 1803     3280000
##  5 Afghanistan 1804     3280000
##  6 Afghanistan 1805     3280000
##  7 Afghanistan 1806     3280000
##  8 Afghanistan 1807     3280000
##  9 Afghanistan 1808     3280000
## 10 Afghanistan 1809     3280000
## # ... with 58,685 more rows
```


```r
inc_long <- income %>%
  pivot_longer(-country, names_to = "year", values_to = "income_per_capita")
inc_long
```

```
## # A tibble: 46,513 x 3
##    country     year  income_per_capita
##    <chr>       <chr>             <dbl>
##  1 Afghanistan 1800                603
##  2 Afghanistan 1801                603
##  3 Afghanistan 1802                603
##  4 Afghanistan 1803                603
##  5 Afghanistan 1804                603
##  6 Afghanistan 1805                603
##  7 Afghanistan 1806                603
##  8 Afghanistan 1807                603
##  9 Afghanistan 1808                603
## 10 Afghanistan 1809                603
## # ... with 46,503 more rows
```


```r
lif_long <- life_exp %>%
  pivot_longer(-country, names_to = "year", values_to = "life_expectancy")
lif_long
```

```
## # A tibble: 56,287 x 3
##    country     year  life_expectancy
##    <chr>       <chr>           <dbl>
##  1 Afghanistan 1800             28.2
##  2 Afghanistan 1801             28.2
##  3 Afghanistan 1802             28.2
##  4 Afghanistan 1803             28.2
##  5 Afghanistan 1804             28.2
##  6 Afghanistan 1805             28.2
##  7 Afghanistan 1806             28.1
##  8 Afghanistan 1807             28.1
##  9 Afghanistan 1808             28.1
## 10 Afghanistan 1809             28.1
## # ... with 56,277 more rows
```
…
3. (2 points) Let's limit the data to 100 years (1920-2020). For these years, which country has the highest average life expectancy? How about the lowest average life expectancy?  


```r
lif_long %>%
  na.omit(lif_long) %>%
  group_by(country) %>%
  filter(year>1919, year<2021) %>%
  summarise(mean_life_exp = mean(life_expectancy)) %>%
  arrange(desc(mean_life_exp))
```

```
## # A tibble: 187 x 2
##    country     mean_life_exp
##    <chr>               <dbl>
##  1 Andorra              79.8
##  2 Sweden               73.5
##  3 Norway               73.2
##  4 Netherlands          73.0
##  5 Dominica             73.0
##  6 Iceland              72.9
##  7 Australia            72.7
##  8 Switzerland          72.7
##  9 Denmark              71.9
## 10 Canada               71.8
## # ... with 177 more rows
```
max average life expectancy= andorra
lowest average life expectancy =Central African Republic

4. (3 points) Although we can see which country has the highest life expectancy for the past 100 years, we don't know which countries have changed the most. What are the top 5 countries that have experienced the biggest improvement in life expectancy between 1920-2020?  


```r
life_exp %>%
  select("country", "1920", "2020") %>%
  mutate(difference_in_lifeexp = `2020` - `1920`) %>%
  arrange(desc(difference_in_lifeexp))
```

```
## # A tibble: 187 x 4
##    country         `1920` `2020` difference_in_lifeexp
##    <chr>            <dbl>  <dbl>                 <dbl>
##  1 Kuwait            26.6   83.4                  56.8
##  2 Kyrgyz Republic   16.6   73.1                  56.5
##  3 Turkmenistan      15.2   70.5                  55.3
##  4 South Korea       28.2   83.2                  55  
##  5 Tajikistan        16.7   71                    54.3
##  6 Nicaragua         25.3   79.5                  54.2
##  7 Kazakhstan        19.3   73.1                  53.8
##  8 Russia            20.5   72.7                  52.2
##  9 Israel            32     83.4                  51.4
## 10 Iran              26.8   78                    51.2
## # ... with 177 more rows
```

the top 5 countries that have expirenced the most improvement in life expectancy are Kuwait, Kyrgyz Republic, Turkmenistan, South Korea and Tajikistan.

5. (3 points) Make a plot that shows the change over the past 100 years for the country with the biggest improvement in life expectancy. Be sure to add appropriate aesthetics to make the plot clean and clear. Once you have made the plot, do a little internet searching and see if you can discover what historical event may have contributed to this remarkable change.  


```r
kuwait <- lif_long %>%
  filter(country == "Kuwait", 1919<year, year<2021)
kuwait
```

```
## # A tibble: 101 x 3
##    country year  life_expectancy
##    <chr>   <chr>           <dbl>
##  1 Kuwait  1920             26.6
##  2 Kuwait  1921             26.6
##  3 Kuwait  1922             26.6
##  4 Kuwait  1923             26.6
##  5 Kuwait  1924             26.7
##  6 Kuwait  1925             26.7
##  7 Kuwait  1926             26.7
##  8 Kuwait  1927             26.7
##  9 Kuwait  1928             26.7
## 10 Kuwait  1929             26.7
## # ... with 91 more rows
```
…
Kuwait experienced massive economic progress due to the development of the oil industry in the 1930s which brought wealth and improved life standards.

## Population Growth
6. (3 points) Which 5 countries have had the highest population growth over the past 100 years (1920-2020)?  


```r
population %>%
  group_by(country) %>%
  summarise (pop_growth = `2020` - `1920`) %>%
  arrange(desc(pop_growth))
```

```
## # A tibble: 195 x 2
##    country       pop_growth
##    <chr>              <dbl>
##  1 India         1063000000
##  2 China          968000000
##  3 Indonesia      226700000
##  4 United States  220000000
##  5 Pakistan       199300000
##  6 Brazil         185400000
##  7 Nigeria        182700000
##  8 Bangladesh     137700000
##  9 Mexico         114200000
## 10 Philippines    100600000
## # ... with 185 more rows
```
…
## Income
The units used for income are gross domestic product per person adjusted for differences in purchasing power in international dollars.

8. (4 points) As in the previous questions, which countries have experienced the biggest growth in per person GDP. Show this as a table and then plot the changes for the top 5 countries. With a bit of research, you should be able to explain the dramatic downturns of the wealthiest economies that occurred during the 1980's.  


```r
income %>%
  select("country", "1920", "2020") %>%
  mutate(difference_in_income = `2020` - `1920`) %>%
  arrange(desc(difference_in_income))
```

```
## # A tibble: 193 x 4
##    country              `1920` `2020` difference_in_income
##    <chr>                 <dbl>  <dbl>                <dbl>
##  1 Qatar                  2300 116000               113700
##  2 Luxembourg             5730  95100                89370
##  3 Singapore              2440  90500                88060
##  4 Brunei                 2130  75100                72970
##  5 Ireland                5170  74100                68930
##  6 United Arab Emirates   2090  65300                63210
##  7 Kuwait                 2350  64300                61950
##  8 Norway                 8960  67500                58540
##  9 Monaco                 6630  62000                55370
## 10 San Marino             3280  57900                54620
## # ... with 183 more rows
```
…
9. (3 points) Create three new objects that restrict each data set (life expectancy, population, income) to the years 1920-2020. Hint: I suggest doing this with the long form of your data. Once this is done, merge all three data sets using the code I provide below. You may need to adjust the code depending on how you have named your objects. I called mine `life_expectancy_100`, `population_100`, and `income_100`. For some of you, learning these `joins` will be important for your project.  


```r
life_expectancy_100 <- lif_long %>%
  filter(1919<year, 2021>year)
life_expectancy_100
```

```
## # A tibble: 18,887 x 3
##    country     year  life_expectancy
##    <chr>       <chr>           <dbl>
##  1 Afghanistan 1920             30.6
##  2 Afghanistan 1921             30.7
##  3 Afghanistan 1922             30.8
##  4 Afghanistan 1923             30.8
##  5 Afghanistan 1924             30.9
##  6 Afghanistan 1925             31  
##  7 Afghanistan 1926             31  
##  8 Afghanistan 1927             31.1
##  9 Afghanistan 1928             31.1
## 10 Afghanistan 1929             31.2
## # ... with 18,877 more rows
```


```r
population_100 <- pop_long %>%
  filter(1919<year, 2021>year)
population_100
```

```
## # A tibble: 19,695 x 3
##    country     year  population
##    <chr>       <chr>      <dbl>
##  1 Afghanistan 1920    10600000
##  2 Afghanistan 1921    10500000
##  3 Afghanistan 1922    10300000
##  4 Afghanistan 1923     9710000
##  5 Afghanistan 1924     9200000
##  6 Afghanistan 1925     8720000
##  7 Afghanistan 1926     8260000
##  8 Afghanistan 1927     7830000
##  9 Afghanistan 1928     7420000
## 10 Afghanistan 1929     7100000
## # ... with 19,685 more rows
```


```r
income_100 <- inc_long %>%
  filter(1919<year, 2021>year)
income_100
```

```
## # A tibble: 19,493 x 3
##    country     year  income_per_capita
##    <chr>       <chr>             <dbl>
##  1 Afghanistan 1920               1490
##  2 Afghanistan 1921               1520
##  3 Afghanistan 1922               1550
##  4 Afghanistan 1923               1570
##  5 Afghanistan 1924               1600
##  6 Afghanistan 1925               1630
##  7 Afghanistan 1926               1650
##  8 Afghanistan 1927               1680
##  9 Afghanistan 1928               1710
## 10 Afghanistan 1929               1740
## # ... with 19,483 more rows
```


```r
gapminder_join <- inner_join(life_expectancy_100, population_100, by= c("country", "year"))
gapminder_join <- inner_join(gapminder_join, income_100, by= c("country", "year"))
gapminder_join
```

```
## # A tibble: 18,887 x 5
##    country     year  life_expectancy population income_per_capita
##    <chr>       <chr>           <dbl>      <dbl>             <dbl>
##  1 Afghanistan 1920             30.6   10600000              1490
##  2 Afghanistan 1921             30.7   10500000              1520
##  3 Afghanistan 1922             30.8   10300000              1550
##  4 Afghanistan 1923             30.8    9710000              1570
##  5 Afghanistan 1924             30.9    9200000              1600
##  6 Afghanistan 1925             31      8720000              1630
##  7 Afghanistan 1926             31      8260000              1650
##  8 Afghanistan 1927             31.1    7830000              1680
##  9 Afghanistan 1928             31.1    7420000              1710
## 10 Afghanistan 1929             31.2    7100000              1740
## # ... with 18,877 more rows
```
…
