…
```
## 
## i Use `spec()` to retrieve the full column specification for this data.
## i Specify the column types or set `show_col_types = FALSE` to quiet this message.
```

```r
colleges
```

```
## # A tibble: 341 x 10
##    INSTNM     CITY   STABBR ZIP   ADM_RATE SAT_AVG PCIP26 COSTT4_A C150_4_POOLED
##    <chr>      <chr>  <chr>  <chr>    <dbl>   <dbl>  <dbl>    <dbl>         <dbl>
##  1 Grossmont~ El Ca~ CA     9202~       NA      NA 0.0016     7956        NA    
##  2 College o~ Visal~ CA     9327~       NA      NA 0.0066     8109        NA    
##  3 College o~ San M~ CA     9440~       NA      NA 0.0038     8278        NA    
##  4 Ventura C~ Ventu~ CA     9300~       NA      NA 0.0035     8407        NA    
##  5 Oxnard Co~ Oxnard CA     9303~       NA      NA 0.0085     8516        NA    
##  6 Moorpark ~ Moorp~ CA     9302~       NA      NA 0.0151     8577        NA    
##  7 Skyline C~ San B~ CA     9406~       NA      NA 0          8580         0.233
##  8 Glendale ~ Glend~ CA     9120~       NA      NA 0.002      9181        NA    
##  9 Citrus Co~ Glend~ CA     9174~       NA      NA 0.0021     9281        NA    
## 10 Fresno Ci~ Fresno CA     93741       NA      NA 0.0324     9370        NA    
## # ... with 331 more rows, and 1 more variable: PFTFTUG1_EF <dbl>
```
…
2. Which cities in California have the highest number of colleges?

```r
num_colleges <- colleges %>%
  count(CITY)%>%
  arrange(desc(n))
num_colleges
```

```
## # A tibble: 161 x 2
##    CITY              n
##    <chr>         <int>
##  1 Los Angeles      24
##  2 San Diego        18
##  3 San Francisco    15
##  4 Sacramento       10
##  5 Berkeley          9
##  6 Oakland           9
##  7 Claremont         7
##  8 Pasadena          6
##  9 Fresno            5
## 10 Irvine            5
## # ... with 151 more rows
```
…
4. The column `COSTT4_A` is the annual cost of each institution. Which city has the highest average cost? Where is it located?

```r
cost_colleges <- colleges%>%
  na.omit(colleges)%>%
  group_by(CITY) %>%
  summarise(mean_cost = mean(COSTT4_A))%>%
  arrange(desc(mean_cost))
cost_colleges
```

```
## # A tibble: 47 x 2
##    CITY        mean_cost
##    <chr>           <dbl>
##  1 Claremont      66652.
##  2 Malibu         66152 
##  3 Orange         64501 
##  4 Pasadena       63471 
##  5 Santa Clara    62964 
##  6 Redlands       61542 
##  7 Moraga         61095 
##  8 Stockton       56899 
##  9 Atherton       56035 
## 10 Oakland        55558.
## # ... with 37 more rows
```
…
