…
```
## 
## i Use `spec()` to retrieve the full column specification for this data.
## i Specify the column types or set `show_col_types = FALSE` to quiet this message.
```

```r
grizzly
```

```
## # A tibble: 494 x 3
##    bear.id longitude latitude
##      <dbl>     <dbl>    <dbl>
##  1       7     -149.     62.7
##  2      57     -153.     58.4
##  3      69     -145.     62.4
##  4      75     -153.     59.9
##  5     104     -143.     61.1
##  6     108     -150.     62.9
##  7     115     -152.     68.0
##  8     116     -147.     62.6
##  9     125     -157.     60.2
## 10     135     -156.     58.9
## # ... with 484 more rows
```
…
```
## 
## i Use `spec()` to retrieve the full column specification for this data.
## i Specify the column types or set `show_col_types = FALSE` to quiet this message.
```

```r
wolf
```

```
## # A tibble: 1,986 x 23
##    pop     year age.cat sex   color   lat  long habitat human pop.density
##    <chr>  <dbl> <chr>   <chr> <chr> <dbl> <dbl>   <dbl> <dbl>       <dbl>
##  1 AK.PEN  2006 S       F     G      57.0 -158.    254.  10.4           8
##  2 AK.PEN  2006 S       M     G      57.0 -158.    254.  10.4           8
##  3 AK.PEN  2006 A       F     G      57.0 -158.    254.  10.4           8
##  4 AK.PEN  2006 S       M     B      57.0 -158.    254.  10.4           8
##  5 AK.PEN  2006 A       M     B      57.0 -158.    254.  10.4           8
##  6 AK.PEN  2006 A       M     G      57.0 -158.    254.  10.4           8
##  7 AK.PEN  2006 A       F     G      57.0 -158.    254.  10.4           8
##  8 AK.PEN  2006 P       M     G      57.0 -158.    254.  10.4           8
##  9 AK.PEN  2006 S       F     G      57.0 -158.    254.  10.4           8
## 10 AK.PEN  2006 P       M     G      57.0 -158.    254.  10.4           8
## # ... with 1,976 more rows, and 13 more variables: pack.size <dbl>,
## #   standard.habitat <dbl>, standard.human <dbl>, standard.pop <dbl>,
## #   standard.packsize <dbl>, standard.latitude <dbl>, standard.longitude <dbl>,
## #   cav.binary <dbl>, cdv.binary <dbl>, cpv.binary <dbl>, chv.binary <dbl>,
## #   neo.binary <dbl>, toxo.binary <dbl>
```
…
6. How many distinct wolf populations are included in this study? Mae a new object that restricts the data to the wolf populations in the lower 48 US states.


```r
wolf2 <- filter(wolf, pop != "AK.PEN")
wolf2
```

```
## # A tibble: 1,886 x 23
##    pop      year age.cat sex   color   lat  long habitat human pop.density
##    <chr>   <dbl> <chr>   <chr> <chr> <dbl> <dbl>   <dbl> <dbl>       <dbl>
##  1 BAN.JAS  2001 A       F     B      52.2 -117.  18553. 1145.        8.85
##  2 BAN.JAS  2003 A       F     B      52.2 -117.  18553. 1145.        8.85
##  3 BAN.JAS  2001 A       F     B      52.2 -117.  18553. 1145.        8.85
##  4 BAN.JAS  2003 A       F     B      52.2 -117.  18553. 1145.        8.85
##  5 BAN.JAS  2005 S       M     B      52.2 -117.  18553. 1145.        8.85
##  6 BAN.JAS  2001 A       F     G      52.2 -117.  18553. 1145.        8.85
##  7 BAN.JAS  2001 S       F     G      52.2 -117.  18553. 1145.        8.85
##  8 BAN.JAS  2006 A       F     <NA>   52.2 -117.  18553. 1145.        8.85
##  9 BAN.JAS  2001 A       M     G      52.2 -117.  18553. 1145.        8.85
## 10 BAN.JAS  2003 A       M     G      52.2 -117.  18553. 1145.        8.85
## # ... with 1,876 more rows, and 13 more variables: pack.size <dbl>,
## #   standard.habitat <dbl>, standard.human <dbl>, standard.pop <dbl>,
## #   standard.packsize <dbl>, standard.latitude <dbl>, standard.longitude <dbl>,
## #   cav.binary <dbl>, cdv.binary <dbl>, cpv.binary <dbl>, chv.binary <dbl>,
## #   neo.binary <dbl>, toxo.binary <dbl>
```
…
