…
```
## 
## i Use `spec()` to retrieve the full column specification for this data.
## i Specify the column types or set `show_col_types = FALSE` to quiet this message.
```

```r
homerange
```

```
## # A tibble: 569 x 24
##    taxon  common.name   class   order   family genus species primarymethod N    
##    <chr>  <chr>         <chr>   <chr>   <chr>  <chr> <chr>   <chr>         <chr>
##  1 lake ~ american eel  actino~ anguil~ angui~ angu~ rostra~ telemetry     16   
##  2 river~ blacktail re~ actino~ cyprin~ catos~ moxo~ poecil~ mark-recaptu~ <NA> 
##  3 river~ central ston~ actino~ cyprin~ cypri~ camp~ anomal~ mark-recaptu~ 20   
##  4 river~ rosyside dace actino~ cyprin~ cypri~ clin~ fundul~ mark-recaptu~ 26   
##  5 river~ longnose dace actino~ cyprin~ cypri~ rhin~ catara~ mark-recaptu~ 17   
##  6 river~ muskellunge   actino~ esocif~ esoci~ esox  masqui~ telemetry     5    
##  7 marin~ pollack       actino~ gadifo~ gadid~ poll~ pollac~ telemetry     2    
##  8 marin~ saithe        actino~ gadifo~ gadid~ poll~ virens  telemetry     2    
##  9 marin~ lined surgeo~ actino~ percif~ acant~ acan~ lineat~ direct obser~ <NA> 
## 10 marin~ orangespine ~ actino~ percif~ acant~ naso  litura~ telemetry     8    
## # ... with 559 more rows, and 15 more variables: mean.mass.g <dbl>,
## #   log10.mass <dbl>, alternative.mass.reference <chr>, mean.hra.m2 <dbl>,
## #   log10.hra <dbl>, hra.reference <chr>, realm <chr>, thermoregulation <chr>,
## #   locomotion <chr>, trophic.guild <chr>, dimension <dbl>, preymass <dbl>,
## #   log10.preymass <dbl>, PPMR <dbl>, prey.size.reference <chr>
```
…
```
## [1] lake fishes   river fishes  marine fishes birds         mammals      
## [6] lizards       snakes        turtles       tortoises    
## 9 Levels: birds lake fishes lizards mammals marine fishes ... turtles
```


```r
taxa <- homerange %>%
  select(taxon, common.name, class, order, family, genus, species) 
taxa
```

```
## # A tibble: 569 x 7
##    taxon         common.name             class   order   family   genus  species
##    <fct>         <chr>                   <chr>   <fct>   <chr>    <chr>  <chr>  
##  1 lake fishes   american eel            actino~ anguil~ anguill~ angui~ rostra~
##  2 river fishes  blacktail redhorse      actino~ cyprin~ catosto~ moxos~ poecil~
##  3 river fishes  central stoneroller     actino~ cyprin~ cyprini~ campo~ anomal~
##  4 river fishes  rosyside dace           actino~ cyprin~ cyprini~ clino~ fundul~
##  5 river fishes  longnose dace           actino~ cyprin~ cyprini~ rhini~ catara~
##  6 river fishes  muskellunge             actino~ esocif~ esocidae esox   masqui~
##  7 marine fishes pollack                 actino~ gadifo~ gadidae  polla~ pollac~
##  8 marine fishes saithe                  actino~ gadifo~ gadidae  polla~ virens 
##  9 marine fishes lined surgeonfish       actino~ percif~ acanthu~ acant~ lineat~
## 10 marine fishes orangespine unicornfish actino~ percif~ acanthu~ naso   litura~
## # ... with 559 more rows
```
…
```r
homerange %>%
  select(trophic.guild, species) %>%
  filter(trophic.guild == "herbivore") %>%
  count(species)
```

```
## # A tibble: 212 x 2
##    species              n
##    <chr>            <int>
##  1 aberti               2
##  2 aegyptius            1
##  3 aethiopicus          1
##  4 africaeaustralis     1
##  5 africana             1
##  6 africanus            1
##  7 agassizii            1
##  8 agrestis             1
##  9 alces                1
## 10 americana            2
## # ... with 202 more rows
```


```r
homerange %>%
  select(trophic.guild, species) %>%
  filter(trophic.guild == "carnivore") %>%
  count(species)
```

```
## # A tibble: 322 x 2
##    species        n
##    <chr>      <int>
##  1 adspersus      1
##  2 aedon          1
##  3 alba           2
##  4 albicauda      1
##  5 aluco          1
##  6 americana      2
##  7 americanus     1
##  8 analis         1
##  9 annularis      1
## 10 anomalum       1
## # ... with 312 more rows
```

**7. Make two new data frames, one which is restricted to carnivores and another that is restricted to herbivores.**  


```r
herbivore <- homerange %>%
  filter(trophic.guild == "herbivore")
herbivore
```

```
## # A tibble: 227 x 24
##    taxon  common.name   class   order  family  genus species primarymethod N    
##    <fct>  <chr>         <chr>   <fct>  <chr>   <chr> <chr>   <chr>         <chr>
##  1 marin~ lined surgeo~ actino~ perci~ acanth~ acan~ lineat~ direct obser~ <NA> 
##  2 marin~ orangespine ~ actino~ perci~ acanth~ naso  litura~ telemetry     8    
##  3 marin~ bluespine un~ actino~ perci~ acanth~ naso  unicor~ telemetry     7    
##  4 marin~ redlip blenny actino~ perci~ blenni~ ophi~ atlant~ direct obser~ 20   
##  5 marin~ bermuda chub  actino~ perci~ kyphos~ kyph~ sectat~ telemetry     11   
##  6 marin~ cherubfish    actino~ perci~ pomaca~ cent~ argi    direct obser~ <NA> 
##  7 marin~ damselfish    actino~ perci~ pomace~ chro~ chromis direct obser~ <NA> 
##  8 marin~ twinspot dam~ actino~ perci~ pomace~ chry~ biocel~ direct obser~ 18   
##  9 marin~ wards damsel  actino~ perci~ pomace~ poma~ wardi   direct obser~ <NA> 
## 10 marin~ australian g~ actino~ perci~ pomace~ steg~ apical~ direct obser~ <NA> 
## # ... with 217 more rows, and 15 more variables: mean.mass.g <dbl>,
## #   log10.mass <dbl>, alternative.mass.reference <chr>, mean.hra.m2 <dbl>,
## #   log10.hra <dbl>, hra.reference <chr>, realm <chr>, thermoregulation <chr>,
## #   locomotion <chr>, trophic.guild <chr>, dimension <dbl>, preymass <dbl>,
## #   log10.preymass <dbl>, PPMR <dbl>, prey.size.reference <chr>
```

**8. Do herbivores or carnivores have, on average, a larger `mean.hra.m2`? Remove any NAs from the data.**  


```r
carnivore <- homerange %>%
  filter(trophic.guild == "carnivore")
carnivore
```

```
## # A tibble: 342 x 24
##    taxon   common.name   class   order  family genus species primarymethod N    
##    <fct>   <chr>         <chr>   <fct>  <chr>  <chr> <chr>   <chr>         <chr>
##  1 lake f~ american eel  actino~ angui~ angui~ angu~ rostra~ telemetry     16   
##  2 river ~ blacktail re~ actino~ cypri~ catos~ moxo~ poecil~ mark-recaptu~ <NA> 
##  3 river ~ central ston~ actino~ cypri~ cypri~ camp~ anomal~ mark-recaptu~ 20   
##  4 river ~ rosyside dace actino~ cypri~ cypri~ clin~ fundul~ mark-recaptu~ 26   
##  5 river ~ longnose dace actino~ cypri~ cypri~ rhin~ catara~ mark-recaptu~ 17   
##  6 river ~ muskellunge   actino~ esoci~ esoci~ esox  masqui~ telemetry     5    
##  7 marine~ pollack       actino~ gadif~ gadid~ poll~ pollac~ telemetry     2    
##  8 marine~ saithe        actino~ gadif~ gadid~ poll~ virens  telemetry     2    
##  9 marine~ giant treval~ actino~ perci~ caran~ cara~ ignobi~ telemetry     4    
## 10 lake f~ rock bass     actino~ perci~ centr~ ambl~ rupest~ mark-recaptu~ 16   
## # ... with 332 more rows, and 15 more variables: mean.mass.g <dbl>,
## #   log10.mass <dbl>, alternative.mass.reference <chr>, mean.hra.m2 <dbl>,
## #   log10.hra <dbl>, hra.reference <chr>, realm <chr>, thermoregulation <chr>,
## #   locomotion <chr>, trophic.guild <chr>, dimension <dbl>, preymass <dbl>,
## #   log10.preymass <dbl>, PPMR <dbl>, prey.size.reference <chr>
```
…
**10. As measured by the data, which snake species has the smallest homerange? Show all of your work, please. Look this species up online and tell me about it!** **Snake is found in taxon column**    


```r
homerange %>% 
  filter (taxon == "snakes") %>%
  select(taxon, family, genus, species, mean.mass.g) %>%
  arrange(mean.mass.g) 
```

```
## # A tibble: 41 x 5
##    taxon  family     genus         species      mean.mass.g
##    <fct>  <chr>      <chr>         <chr>              <dbl>
##  1 snakes colubridae carphopis     vermis              3.46
##  2 snakes colubridae carphopis     viridis             3.65
##  3 snakes colubridae diadophis     punctatus           9   
##  4 snakes viperidae  bitis         schneideri         17.0 
##  5 snakes colubridae thamnophis    butleri            21.5 
##  6 snakes elapidae   hoplocephalus bungaroides        48.8 
##  7 snakes colubridae oocatochus    rufodorsatus       62.5 
##  8 snakes viperidae  crotalus      pricei             67.2 
##  9 snakes colubridae natrix        natrix             78.5 
## 10 snakes viperidae  vipera        latastei           97.4 
## # ... with 31 more rows
```
…
