…
```r
#tabyl(superhero_info, alignment)
```

2. Notice that we have some neutral superheros! Who are they?

```r
filter(superhero_info, alignment == "neutral")
```

```
## # A tibble: 24 x 10
##    name  gender eye_color race  hair_color height publisher skin_color alignment
##    <chr> <chr>  <chr>     <chr> <chr>       <dbl> <chr>     <chr>      <chr>    
##  1 Biza~ Male   black     Biza~ Black         191 DC Comics white      neutral  
##  2 Blac~ Male   <NA>      God ~ <NA>           NA DC Comics <NA>       neutral  
##  3 Capt~ Male   brown     Human Brown          NA DC Comics <NA>       neutral  
##  4 Copy~ Female red       Muta~ White         183 Marvel C~ blue       neutral  
##  5 Dead~ Male   brown     Muta~ No Hair       188 Marvel C~ <NA>       neutral  
##  6 Deat~ Male   blue      Human White         193 DC Comics <NA>       neutral  
##  7 Etri~ Male   red       Demon No Hair       193 DC Comics yellow     neutral  
##  8 Gala~ Male   black     Cosm~ Black         876 Marvel C~ <NA>       neutral  
##  9 Glad~ Male   blue      Stro~ Blue          198 Marvel C~ purple     neutral  
## 10 Indi~ Female <NA>      Alien Purple         NA DC Comics <NA>       neutral  
## # ... with 14 more rows, and 1 more variable: weight <dbl>
```

## `superhero_info`
3. Let's say we are only interested in the variables name, alignment, and "race". How would you isolate these variables from `superhero_info`?

```r
select(superhero_info, "alignment" ,"race")
```

```
## # A tibble: 734 x 2
##    alignment race             
##    <chr>     <chr>            
##  1 good      Human            
##  2 good      Icthyo Sapien    
##  3 good      Ungaran          
##  4 bad       Human / Radiation
##  5 bad       Cosmic Entity    
##  6 bad       Human            
##  7 good      <NA>             
##  8 good      Human            
##  9 good      <NA>             
## 10 good      Human            
## # ... with 724 more rows
```

## Not Human
4. List all of the superheros that are not human.

```r
superhero_info %>%
  select(name, race) %>%
  filter(race != "Human")
```

```
## # A tibble: 222 x 2
##    name         race             
##    <chr>        <chr>            
##  1 Abe Sapien   Icthyo Sapien    
##  2 Abin Sur     Ungaran          
##  3 Abomination  Human / Radiation
##  4 Abraxas      Cosmic Entity    
##  5 Ajax         Cyborg           
##  6 Alien        Xenomorph XX121  
##  7 Amazo        Android          
##  8 Angel        Vampire          
##  9 Angel Dust   Mutant           
## 10 Anti-Monitor God / Eternal    
## # ... with 212 more rows
```

## Good and Evil
5. Let's make two different data frames, one focused on the "good guys" and another focused on the "bad guys".

```r
superhero_info %>%
  select(name, alignment) %>%
  filter(alignment == "good")
```

```
## # A tibble: 496 x 2
##    name         alignment
##    <chr>        <chr>    
##  1 A-Bomb       good     
##  2 Abe Sapien   good     
##  3 Abin Sur     good     
##  4 Adam Monroe  good     
##  5 Adam Strange good     
##  6 Agent 13     good     
##  7 Agent Bob    good     
##  8 Agent Zero   good     
##  9 Alan Scott   good     
## 10 Alex Woolsly good     
## # ... with 486 more rows
```


```r
superhero_info %>%
  select(name, alignment) %>%
  filter(alignment == "bad")
```

```
## # A tibble: 207 x 2
##    name          alignment
##    <chr>         <chr>    
##  1 Abomination   bad      
##  2 Abraxas       bad      
##  3 Absorbing Man bad      
##  4 Air-Walker    bad      
##  5 Ajax          bad      
##  6 Alex Mercer   bad      
##  7 Alien         bad      
##  8 Amazo         bad      
##  9 Ammo          bad      
## 10 Angela        bad      
## # ... with 197 more rows
```
…
8. Among the bad guys, who are the male humans over 200 inches in height?

```r
superhero_info %>%
  select(name, alignment, height) %>%
  filter(alignment == "bad", height >= 200)
```

```
## # A tibble: 25 x 3
##    name           alignment height
##    <chr>          <chr>      <dbl>
##  1 Abomination    bad          203
##  2 Alien          bad          244
##  3 Amazo          bad          257
##  4 Apocalypse     bad          213
##  5 Bane           bad          203
##  6 Bloodaxe       bad          218
##  7 Darkseid       bad          267
##  8 Doctor Doom    bad          201
##  9 Doctor Doom II bad          201
## 10 Doomsday       bad          244
## # ... with 15 more rows
```

9. OK, so are there more good guys or bad guys that are bald (personal interest)?

```r
superhero_info %>%
  select(name, alignment, hair_color) %>%
  filter(alignment == "bad", hair_color == "No Hair")
```

```
## # A tibble: 35 x 3
##    name          alignment hair_color
##    <chr>         <chr>     <chr>     
##  1 Abomination   bad       No Hair   
##  2 Absorbing Man bad       No Hair   
##  3 Alien         bad       No Hair   
##  4 Annihilus     bad       No Hair   
##  5 Anti-Monitor  bad       No Hair   
##  6 Black Manta   bad       No Hair   
##  7 Bloodwraith   bad       No Hair   
##  8 Brainiac      bad       No Hair   
##  9 Darkseid      bad       No Hair   
## 10 Darth Vader   bad       No Hair   
## # ... with 25 more rows
```

```r
superhero_info %>%
  select(name, alignment, hair_color) %>%
  filter(alignment == "good", hair_color == "No Hair")
```

```
## # A tibble: 37 x 3
##    name            alignment hair_color
##    <chr>           <chr>     <chr>     
##  1 A-Bomb          good      No Hair   
##  2 Abe Sapien      good      No Hair   
##  3 Abin Sur        good      No Hair   
##  4 Beta Ray Bill   good      No Hair   
##  5 Bishop          good      No Hair   
##  6 Black Lightning good      No Hair   
##  7 Blaquesmith     good      No Hair   
##  8 Bloodhawk       good      No Hair   
##  9 Crimson Dynamo  good      No Hair   
## 10 Donatello       good      No Hair   
## # ... with 27 more rows
```
…
## Height to Weight Ratio
13. It's easy to be strong when you are heavy and tall, but who is heavy and short? Which superheros have the highest height to weight ratio?

```r
superhero_info %>%
  mutate(height_to_weight_ratio = height/weight) %>%
  select(name, height_to_weight_ratio) %>%
  arrange(height_to_weight_ratio)
```

```
## # A tibble: 734 x 2
##    name        height_to_weight_ratio
##    <chr>                        <dbl>
##  1 Giganta                     0.0992
##  2 Utgard-Loki                 0.262 
##  3 Darkseid                    0.327 
##  4 Juggernaut                  0.336 
##  5 Red Hulk                    0.338 
##  6 Sasquatch                   0.339 
##  7 Hulk                        0.387 
##  8 Bloodaxe                    0.440 
##  9 Thanos                      0.454 
## 10 A-Bomb                      0.460 
## # ... with 724 more rows
```
…
14. How many superheros have a combination of accelerated healing, durability, and super strength?

```r
superhero_powers %>%
  select(hero_names, accelerated_healing, durability, super_strength) %>%
  filter(healing=TRUE, durability=TRUE, accelerated_healing=TRUE)
```

```
## # A tibble: 667 x 4
##    hero_names    accelerated_healing durability super_strength
##    <chr>         <lgl>               <lgl>      <lgl>         
##  1 3-D Man       FALSE               FALSE      TRUE          
##  2 A-Bomb        TRUE                TRUE       TRUE          
##  3 Abe Sapien    TRUE                TRUE       TRUE          
##  4 Abin Sur      FALSE               FALSE      FALSE         
##  5 Abomination   TRUE                FALSE      TRUE          
##  6 Abraxas       FALSE               FALSE      TRUE          
##  7 Absorbing Man FALSE               TRUE       TRUE          
##  8 Adam Monroe   TRUE                FALSE      FALSE         
##  9 Adam Strange  FALSE               TRUE       FALSE         
## 10 Agent Bob     FALSE               FALSE      FALSE         
## # ... with 657 more rows
```
…
